<?xml version="1.0" encoding="utf-8"?>
<!-- Generator: Adobe Illustrator 20.1.0, SVG Export Plug-In . SVG Version: 6.00 Build 0)  -->
<svg version="1.1" id="Layer_1" xmlns="http://www.w3.org/2000/svg" xmlns:xlink="http://www.w3.org/1999/xlink" x="0px" y="0px"
	 viewBox="0 0 900 929.7" style="enable-background:new 0 0 900 929.7;" xml:space="preserve">
<style type="text/css">
	.st0{fill:#FFFFFF;}
	.st1{opacity:0.35;}
	.st2{fill:#9B8579;stroke:#6B5C53;stroke-miterlimit:10;}
</style>
<g>
	<polygon class="st0" points="236,917.1 253.8,821 223.2,771.7 166.9,753.1 183.8,679.6 229,679.6 280.7,557.6 228.9,563.7 
		200.2,607.7 141.5,613.7 125.9,531.6 141.3,523.1 110.9,476.2 31.4,475.5 12.8,519.9 21.5,562 58.9,618.5 52.1,698.9 76.7,693.5 
		76.7,708.4 44.1,741 65.6,851 107.3,916.4 	"/>
	<polygon class="st0" points="35.8,460.4 122.2,460.4 160.1,527.4 142.6,538.2 151.4,598.2 192.3,594.4 214,566.2 222.6,549.6 
		252.9,543.9 254.5,447.1 279.9,447.1 279.9,409.7 299.6,409.7 299.6,334.4 278.5,334.4 278.5,200 249.2,200 249.2,163.5 
		138.9,163.5 120.2,232.4 155.5,232.4 155.5,281.1 120.4,281.1 120.4,259.8 105.9,259.8 69,296.8 	"/>
	<polygon class="st0" points="138.6,148.8 264.2,148.8 264.2,182.7 291.1,182.7 291.1,316.1 313.5,316.1 313.5,421.3 293.7,421.3 
		293.7,461.1 266.1,461.1 266.1,541.4 305.7,537.4 297.3,564.3 346.6,569.2 357.7,589.7 456.2,577.3 467.4,588 499.1,566 
		599.3,560.1 599.3,533.7 715,482.6 742.1,479.5 755.3,460.5 794.5,461.3 794.5,423.7 862.2,423.7 887.9,340.3 887.9,285.9 
		848.8,249.1 641.3,249.1 641.3,208.5 513.5,208.5 513.5,93.3 416.1,93.3 336.8,14 280.7,14 240.1,54.6 164.7,54.6 158.5,82.4 
		235.5,116.4 217,128.2 158.8,117.3 	"/>
</g>
<g>
	<g class="st1">
		<polygon class="st2" points="236,917.1 253.8,821 223.2,771.7 166.9,753.1 183.8,679.6 229,679.6 280.7,557.6 228.9,563.7 
			200.2,607.7 141.5,613.7 125.9,531.6 141.3,523.1 110.9,476.2 31.4,475.5 12.8,519.9 21.5,562 58.9,618.5 52.1,698.9 76.7,693.5 
			76.7,708.4 44.1,741 65.6,851 107.3,916.4 		"/>
		<polygon class="st2" points="35.8,460.4 122.2,460.4 160.1,527.4 142.6,538.2 151.4,598.2 192.3,594.4 214,566.2 222.6,549.6 
			252.9,543.9 254.5,447.1 279.9,447.1 279.9,409.7 299.6,409.7 299.6,334.4 278.5,334.4 278.5,200 249.2,200 249.2,163.5 
			138.9,163.5 120.2,232.4 155.5,232.4 155.5,281.1 120.4,281.1 120.4,259.8 105.9,259.8 69,296.8 		"/>
		<polygon class="st2" points="138.6,148.8 264.2,148.8 264.2,182.7 291.1,182.7 291.1,316.1 313.5,316.1 313.5,421.3 293.7,421.3 
			293.7,461.1 266.1,461.1 266.1,541.4 305.7,537.4 297.3,564.3 346.6,569.2 357.7,589.7 456.2,577.3 467.4,588 499.1,566 
			599.3,560.1 599.3,533.7 715,482.6 742.1,479.5 755.3,460.5 794.5,461.3 794.5,423.7 862.2,423.7 887.9,340.3 887.9,285.9 
			848.8,249.1 641.3,249.1 641.3,208.5 513.5,208.5 513.5,93.3 416.1,93.3 336.8,14 280.7,14 240.1,54.6 164.7,54.6 158.5,82.4 
			235.5,116.4 217,128.2 158.8,117.3 		"/>
	</g>
</g>
</svg>
